…
    ## `mutate_all()` ignored the following grouping variables:
    ## • Column `city_state`
    ## ℹ Use `mutate_at(df, vars(-group_cols()), myoperation)` to silence the message.

``` r
homicide_city_state
```

    ## # A tibble: 51 × 6
    ## # Groups:   city_state [51]
    ##    city_state     closed_by_arrest closed_without_arrest open_no_arrest
    ##    <chr>                     <dbl>                 <dbl>          <dbl>
    ##  1 Albuquerque,NM              232                    52             94
    ##  2 Atlanta,GA                  600                    58            315
    ##  3 Baltimore,MD               1002                   152           1673
    ##  4 Baton Rouge,LA              228                    16            180
    ##  5 Birmingham,AL               453                    64            283
    ##  6 Boston,MA                   304                     0            310
    ##  7 Buffalo,NY                  202                     8            311
    ##  8 Charlotte,NC                481                    44            162
    ##  9 Chicago,IL                 1462                   387           3686
    ## 10 Cincinnati,OH               385                    49            260
    ## # ℹ 41 more rows
    ## # ℹ 2 more variables: total_homicide <dbl>, unsolved_homicide <dbl>
…
